{
	"packages":
	[
	    {
		    "name": "Eicon",
		    "websiteURL": "https://github.com/stm32duino",
		    "maintainer": "Eicon",
		    "email": "stmduino@st.com",
		    "help":
		    {
			    "online": "http://www.stm32duino.com/"
		    },
		    "platforms":
		    [
                {
                    "name": "Eicon boards",
                    "architecture": "stm32",
                    "version": "2.2.0",
                    "category": "Contributed", 
		            "url": "https://gitlab.com/noeldiviney/eicon_lin_arduino_stm32_core/-/archive/2.2.0/eicon_lin_arduino_stm32_core-2.2.0.tar.bz2",
                    "archiveFileName": "eicon_lin_arduino_stm32_core-2.2.0.tar.bz2",
                    "checksum": "SHA-256:d73f6bff4696f0323c03275fe386c7a308a61a2257f7ab6c96493fd6ebcf52a8",
                    "size": "40843991",
                    "boards":
                    [
						{"name": "F103C8T6"},
						{"name": "F427ZIT6"},
						{"name": "F429ZIT6"},
						{"name": "F030F4"}
                    ],
                    "toolsDependencies":
                    [
                        {
                            "packager": "Eicon",
                            "name": "xpack-arm-none-eabi-gcc",
                            "version": "10.3.1-2.3"
                        },
                        {
                            "packager": "Eicon",
                            "name": "STM32Tools",
                            "version": "2.1.1"
                        },
                        {
                            "packager": "Eicon",
                             "name": "CMSIS",
                             "version": "5.7.0"
                        }
                    ]
                },
                {
                    "name": "STM8 MCU based boards",
                    "architecture": "stm8",
                    "version": "1.0.0",
                    "category": "Contributed",
                    "url": "https://github.com/stm32duino/Arduino_Core_STM8/releases/download/1.0.0/STM8-1.0.0.tar.bz2",
                    "archiveFileName": "STM8-1.0.0.tar.bz2",
                    "checksum": "SHA-256:f38055bfd8199feea66f02a3a25405d07aa3635f57b2adf15e93112b2d556584",
                    "size": "374456",
                    "boards":
                    [
                        {
                            "name": "Nucleo_8S208RB"
                        },
                        {
                            "name": "Nucleo_8L152R8"
                        }
                    ],
                    "toolsDependencies":
                    [
                        {
                            "packager": "STMicroelectronics",
                            "name": "cxppstm8",
                            "version": "4.1.3"
                        },
                        {
                            "packager": "STMicroelectronics",
                            "name": "STM8Tools",
                            "version": "1.0.0"
                        }
                    ]
                }
            ],
            "tools":
            [
                {
                    "name": "xpack-arm-none-eabi-gcc",
                    "version": "10.3.1-2.3",
                    "systems":
                    [
                        {
                            "host": "arm-linux-gnueabihf",
                            "url": "https://github.com/xpack-dev-tools/arm-none-eabi-gcc-xpack/releases/download/v10.3.1-2.3/xpack-arm-none-eabi-gcc-10.3.1-2.3-linux-arm.tar.gz",
                            "archiveFileName": "xpack-arm-none-eabi-gcc-10.3.1-2.3-linux-arm.tar.gz",
                            "checksum": "SHA-256:cf152bb008697143b802a85fffffc2c9b562bc1e6d0984ad02d4ee1f1bb91790",
                            "size": "169168939"
                        },
                        {
                            "host": "aarch64-linux-gnu",
                            "url": "https://github.com/xpack-dev-tools/arm-none-eabi-gcc-xpack/releases/download/v10.3.1-2.3/xpack-arm-none-eabi-gcc-10.3.1-2.3-linux-arm64.tar.gz",
                            "archiveFileName": "xpack-arm-none-eabi-gcc-10.3.1-2.3-linux-arm64.tar.gz",
                            "checksum": "SHA-256:6e3ee605079ba084836cd057022e16c28605f4068042cd14397976b836ea1a21",
                            "size": "174454524"
                        },
                        {
                            "host": "i686-mingw32",
                            "url": "https://github.com/xpack-dev-tools/arm-none-eabi-gcc-xpack/releases/download/v10.3.1-2.3/xpack-arm-none-eabi-gcc-10.3.1-2.3-win32-ia32.zip",
                            "archiveFileName": "xpack-arm-none-eabi-gcc-10.3.1-2.3-win32-ia32.zip",
                            "checksum": "SHA-256:c98fc443d7ef3524d42a40b6635e8b99c736efac77729f8a70463bb9ba19bc85",
                            "size": "180590105"
                        },
                        {
                            "host": "x86_64-apple-darwin",
                            "url": "https://github.com/xpack-dev-tools/arm-none-eabi-gcc-xpack/releases/download/v10.3.1-2.3/xpack-arm-none-eabi-gcc-10.3.1-2.3-darwin-x64.tar.gz",
                            "archiveFileName": "xpack-arm-none-eabi-gcc-10.3.1-2.3-darwin-x64.tar.gz",
                            "checksum": "SHA-256:eb9218eaafb74a05fab9cbbeb49fd4fe7b85c6ba411aefc66f681a5a862e8d8e",
                            "size": "173440158"
                        },
                        {
                            "host": "x86_64-pc-linux-gnu",
                            "url": "https://github.com/xpack-dev-tools/arm-none-eabi-gcc-xpack/releases/download/v10.3.1-2.3/xpack-arm-none-eabi-gcc-10.3.1-2.3-linux-x64.tar.gz",
                            "archiveFileName": "xpack-arm-none-eabi-gcc-10.3.1-2.3-linux-x64.tar.gz",
                            "checksum": "SHA-256:559dcf1c2dfddac513110fe23da0ef254032c09967eaa901f075515d51818719",
                            "size": "175646740"
                        },
                        {
                            "host": "i686-pc-linux-gnu",
                            "url": "https://github.com/xpack-dev-tools/arm-none-eabi-gcc-xpack/releases/download/v10.3.1-2.3/xpack-arm-none-eabi-gcc-10.3.1-2.3-linux-ia32.tar.gz",
                            "archiveFileName": "xpack-arm-none-eabi-gcc-10.3.1-2.3-linux-ia32.tar.gz",
                            "checksum": "SHA-256:8a6621590ac2f0b33fc71f1c501af6b60e900fc3d895a11f20de850cd4f55ca3",
                            "size": "179184840"
                        }
                    ]
                },
                {
                    "name": "CMSIS",
                    "version": "5.7.0",
                    "systems":
                    [
                        {
                            "host": "i686-mingw32",
                            "url": "https://github.com/stm32duino/ArduinoModule-CMSIS/releases/download/5.7.0/CMSIS-5.7.0.tar.bz2",
                            "archiveFileName": "CMSIS-5.7.0.tar.bz2",
                            "checksum": "SHA-256:0b04b0f214e483bcc360cda985cddc0de8031714019ceabcda4770d510b82bfe",
                            "size": "26151901"
                        },
                        {
                            "host": "x86_64-apple-darwin",
                            "url": "https://github.com/stm32duino/ArduinoModule-CMSIS/releases/download/5.7.0/CMSIS-5.7.0.tar.bz2",
                            "archiveFileName": "CMSIS-5.7.0.tar.bz2",
                            "checksum": "SHA-256:0b04b0f214e483bcc360cda985cddc0de8031714019ceabcda4770d510b82bfe",
                            "size": "26151901"
                        },
                        {
                            "host": "x86_64-pc-linux-gnu",
                            "url": "https://github.com/stm32duino/ArduinoModule-CMSIS/releases/download/5.7.0/CMSIS-5.7.0.tar.bz2",
                            "archiveFileName": "CMSIS-5.7.0.tar.bz2",
                            "checksum": "SHA-256:0b04b0f214e483bcc360cda985cddc0de8031714019ceabcda4770d510b82bfe",
                            "size": "26151901"
                        },
                        {
                            "host": "i686-pc-linux-gnu",
                            "url": "https://github.com/stm32duino/ArduinoModule-CMSIS/releases/download/5.7.0/CMSIS-5.7.0.tar.bz2",
                            "archiveFileName": "CMSIS-5.7.0.tar.bz2",
                            "checksum": "SHA-256:0b04b0f214e483bcc360cda985cddc0de8031714019ceabcda4770d510b82bfe",
                            "size": "26151901"
                        },
                        {
                            "host": "arm-linux-gnueabihf",
                            "url": "https://github.com/stm32duino/ArduinoModule-CMSIS/releases/download/5.7.0/CMSIS-5.7.0.tar.bz2",
                            "archiveFileName": "CMSIS-5.7.0.tar.bz2",
                            "checksum": "SHA-256:0b04b0f214e483bcc360cda985cddc0de8031714019ceabcda4770d510b82bfe",
                            "size": "26151901"
                        },
                        {
                            "host": "all",
                            "url": "https://github.com/stm32duino/ArduinoModule-CMSIS/releases/download/5.7.0/CMSIS-5.7.0.tar.bz2",
                            "archiveFileName": "CMSIS-5.7.0.tar.bz2",
                            "checksum": "SHA-256:0b04b0f214e483bcc360cda985cddc0de8031714019ceabcda4770d510b82bfe",
                            "size": "26151901"
                        }
                    ]
                },
                {
                    "name": "STM32Tools",
                    "version": "2.1.1",
                    "systems":
                    [
                        {
                            "host": "i686-mingw32",
                            "url": "https://github.com/stm32duino/Arduino_Tools/releases/download/2.1.1/STM32Tools-2.1.1-windows.tar.bz2",
                            "archiveFileName": "STM32Tools-2.1.1-windows.tar.bz2",
                            "checksum": "SHA-256:385f1495a70613ca6771c0f824e420f44e27b1433b0b449aaade1dde63b35e68",
                            "size": "2587832"
                        },
                        {
                            "host": "x86_64-apple-darwin",
                            "url": "https://github.com/stm32duino/Arduino_Tools/releases/download/2.1.1/STM32Tools-2.1.1-mac.tar.bz2",
                            "archiveFileName": "STM32Tools-2.1.1-mac.tar.bz2",
                            "checksum": "SHA-256:417bc75ebf19060083e29cf65f7a9f71a6903b7fd158c154057ed723c5e847a1",
                            "size": "486815"
                        },
                        {
                            "host": "x86_64-pc-linux-gnu",
                            "url": "https://github.com/stm32duino/Arduino_Tools/releases/download/2.1.1/STM32Tools-2.1.1-linux.tar.bz2",
                            "archiveFileName": "STM32Tools-2.1.1-linux.tar.bz2",
                            "checksum": "SHA-256:35ecc3914e8a0a45de229111cc45b8cb39a8e0a8c66313562fd51977a7ab3dee",
                            "size": "480360"
                        },
                        {
                            "host": "i686-pc-linux-gnu",
                            "url": "https://github.com/stm32duino/Arduino_Tools/releases/download/2.1.1/STM32Tools-2.1.1-linux.tar.bz2",
                            "archiveFileName": "STM32Tools-2.1.1-linux.tar.bz2",
                            "checksum": "SHA-256:35ecc3914e8a0a45de229111cc45b8cb39a8e0a8c66313562fd51977a7ab3dee",
                            "size": "480360"
                        }
                    ]
                },
                {
                    "name": "cxppstm8",
                    "version": "4.1.3",
                    "systems":
                    [
                        {
                            "host": "i686-mingw32",
                            "url": "http://cosmicsoftware.com/Arduino/4.1.3/Cxppstm8.zip",
                            "archiveFileName": "Cxppstm8.zip",
                            "checksum": "SHA-256:1277e2ba80e744845ee55bb9088b206e324d401439ddd2956c13a4f418832dfe",
                            "size": "32363283"
                        }
                    ]
                },
                {
                    "name": "STM8Tools",
                    "version": "1.0.0",
                    "systems":
                    [
                        {
                            "host": "i686-mingw32",
                            "url": "https://github.com/stm32duino/Arduino_Tools_STM8/releases/download/1.0.0/STM8Tools-1.0.0-windows.tar.bz2",
                            "archiveFileName": "STM8Tools-1.0.0-windows.tar.bz2",
                            "checksum": "SHA-256:e8e8c8c23b41ae02e3363a54acfd0c716813b8ef64db490af1555993c81dcd0a",
                            "size": "6864757"
                        }
                    ]
                }
            ]                
        }
    ]
}

